{
  "Actor": {
    "types": [
      "Character",
      "NPC",
      "Vehicle",
      "NPC Vehicle",
      "Ship",
      "NPC Ship",
      "Creature"
    ],
    "templates": {
      "info": {
        "info": {
          "gender": {
            "type": "String",
            "label": "SHEET.Gender",
            "value": ""
          },
          "age": {
            "type": "String",
            "label": "SHEET.Age",
            "value": ""
          },
          "height": {
            "type": "String",
            "label": "SHEET.Height",
            "value": ""
          },
          "weight": {
            "type": "String",
            "label": "SHEET.Weight",
            "value": ""
          }
        }
      },
      "status": {
        "status": {
          "dodge": {
            "type": "Number",
            "label": "SHEET.DefenceDodge",
            "initial": 0,
            "value": 0,
            "modifier": 0,
            "calculationBonusModifier": 0
          },
          "initiative": {
            "type": "Number",
            "label": "SHEET.InitiativeTactics",
            "initial": 0,
            "value": 0,
            "modifier": 0,
            "calculationBonusModifier": 0
          },
          "parry": {
            "type": "Number",
            "label": "SHEET.DefenceParry",
            "initial": 0,
            "value": 0,
            "modifier": 0,
            "calculationBonusModifier": 0
          },
          "karma": {
            "type": "Number",
            "label": "SHEET.Karma",
            "initial": 10,
            "value": 10,
            "modifier": 0,
            "calculationBonusModifier": 0
          },
          "karmaCyber": {
            "type": "Number",
            "label": "SHEET.KarmaCyber",
            "initial": 0,
            "value": 0,
            "modifier": 0,
            "calculationBonusModifier": 0
          },
          "karmaCyberMax": {
            "type": "Number",
            "label": "SHEET.Max",
            "initial": 0,
            "value": 0,
            "modifier": 0,
            "calculationBonusModifier": 0
          },
          "endurance": {
            "type": "Number",
            "label": "SHEET.Endurance",
            "initial": 20,
            "value": 20,
            "modifier": 0,
            "calculationBonusModifier": 0
          },
          "rank": {
            "label": "SHEET.Rank",
            "value": {
              "name": "RANK.Harmless",
              "minRankPoints": 0,
              "maxRankPoints": 7,
              "skillCap": 40,
              "karmaPoints": 10,
              "karmaCap": 3,
              "endurance": 20
            }
          },
          "rankPoints": {
            "type": "Number",
            "label": "SHEET.RankPoints",
            "value": 0
          }
        }
      },
      "socialFactor": {
        "socialFactor": {
          "sfWornItems": {
            "value": 0
          },
          "sfHonoraryRanks": {
            "value": 0
          },
          "sfOther": {
            "value": 0
          },
          "sfTotal": {
            "value": 0
          }
        }
      },
      "honoraryRanks": {
        "honoraryRanks": {
          "imperial": {
            "value": "",
            "socialFactor": 0,
            "unlocks": null
          },
          "federation": {
            "value": "",
            "socialFactor": 0,
            "unlocks": null
          }
        }
      },
      "skills": {
        "skills": {}
      }
    },
    "Character": {
      "templates": [
        "status",
        "skills",
        "socialFactor",
        "honoraryRanks"
      ]
    },
    "NPC": {
      "templates": [
        "status"
      ]
    },
    "Vehicle": {
      "templates": [
        "status"
      ]
    },
    "NPC Vehicle": {
      "templates": [
        "status"
      ]
    },
    "Ship": {
      "templates": [
        "status"
      ]
    },
    "NPC Ship": {
      "templates": [
        "status"
      ]
    },
    "Creature": {
      "templates": [
        "status"
      ]
    }
  },
  "Item": {
    "types": [
      "Armour",
      "Backgrounds",
      "Cybernetics",
      "Enhancements",
      "enhancements",
      "General Equipment",
      "Wearables",
      "Karma Capabilities",
      "Ranged Weapons",
      "Melee Weapons",
      "Ammo Clips",
      "Commodities",
      "Ship Bulkheads",
      "Ship Power Plants",
      "Ship Thrusters",
      "Ship FSD",
      "Ship Life Support",
      "Ship Power Distributor",
      "Ship Sensors",
      "Ship Shields",
      "Ship Weapons",
      "Ship Utility Mounts",
      "Ship Internal - AFM Units",
      "Ship Internal - Cargo Racks",
      "Ship Internal - Collector Limpet Controllers",
      "Ship Internal - Docking Computer",
      "Ship Internal - FSD Interdictor",
      "Ship Internal - Fuel Scoops",
      "Ship Internal - Hatch Breaker Limpet Controllers",
      "Ship Internal - Hull Reinforcement Packages",
      "Ship Internal - Module Reinforcement Packages",
      "Ship Internal - Prospector Limpet Controllers",
      "Ship Internal - Planetary Vehicle Hangars",
      "Ship Internal - Refineries",
      "Ship Internal - Shield Cell Banks",
      "Ship Internal - Shield Generators",
      "Vehicle Shields",
      "Vehicle Weapons",
      "Vehicle Specials"
    ],
    "templates": {
      "details": {
        "details": {
          "description": {
            "type": "String",
            "label": "ITEM.Description",
            "value": ""
          },
          "gmdescription": {
            "type": "String",
            "label": "ITEM.GMDescription",
            "value": ""
          }
        }
      },
      "backgrounds": {
        "backgrounds": {
          "bonuses": {
            "type": "String",
            "label": "ITEM.Background.Bonus",
            "value": ""
          },
          "effects": [],
          "choices": {
            "type": "Number",
            "label": "ITEM.Background.Choices",
            "value": 1
          }
        }
      },
      "karma": {
        "karma": {
          "effect": {
            "type": "String",
            "label": "ITEM.Karma.Effect",
            "value": ""
          },
          "cost": {
            "type": "Number",
            "label": "ITEM.Karma.Cost",
            "value": 1
          },
          "prerequisite": {
            "type": "String",
            "label": "ITEM.Karma.Prerequisite",
            "value": ""
          },
          "skill": {
            "type": "String",
            "label": "ITEM.Karma.Skill",
            "value": ""
          }
        }
      },
      "socialFactor": {
        "socialFactor": {
          "value": 0
        }
      },
      "internalId": {
        "internalId": {
          "value": null
        }
      },
      "cost": {
        "cost": {
          "value": 0
        }
      },
      "karmaCost": {
        "karmaCost": {
          "value": 0
        }
      },
      "resistKnockdown": {
        "resistKnockdown": {
          "value": 0
        }
      },
      "extraMeters": {
        "extraMeters": {
          "value": 0
        }
      },
      "extraCarryingCapacity": {
        "extraCarryingCapacity": {
          "value": 0
        }
      },
      "count": {
        "count": {
          "value": 1
        }
      },
      "meleeFightingDamageBonus": {
        "meleeFightingDamageBonus": {
          "value": 0
        }
      },
      "enduranceAddition": {
        "enduranceAddition": {
          "value": 0
        }
      },
      "initiativeAddition": {
        "initiativeAddition": {
          "value": 0
        }
      },
      "notes": {
        "notes": {
          "value": ""
        }
      },
      "wearable": {
        "wearable": {
          "value": false
        }
      },
      "removable": {
        "removable": {
          "value": true
        }
      },
      "worn": {
        "worn": {
          "value": false
        }
      },
      "equipped": {
        "equipped": {
          "value": false
        }
      },
      "effects": {
        "effects": {
          "value": []
        }
      },
      "onShip": {
        "onShip": {
          "type": "Boolean",
          "label": "ITEM.OnShip",
          "value": 0
        }
      },
      "armour": {
        "armour": {
          "absorbFighting": {
            "type": "Number",
            "label": "ITEM.Armour.AbsorbFighting",
            "value": 0
          },
          "absorbMelee": {
            "type": "Number",
            "label": "ITEM.Armour.AbsorbMelee",
            "value": 0
          },
          "absorbKinetic": {
            "type": "Number",
            "label": "ITEM.Armour.AbsorbKinetic",
            "value": 0
          },
          "absorbEnergy": {
            "type": "Number",
            "label": "ITEM.Armour.AbsorbEnergy",
            "value": 0
          },
          "absorbExplosive": {
            "type": "Number",
            "label": "ITEM.Armour.AbsorbExplosive",
            "value": 0
          },
          "absorbToxic": {
            "type": "Boolean",
            "label": "ITEM.Armour.AbsorbToxic",
            "value": false
          },
          "discreet": {
            "type": "Boolean",
            "label": "ITEM.Armour.Discreet",
            "value": false
          },
          "hardened": {
            "type": "Number",
            "label": "ITEM.Armour.Hardened",
            "value": 0
          },
          "enhancement": {
            "type": "String",
            "label": "ITEM.Armour.Enhancement",
            "value": false
          }
        }
      },
      "melee": {
        "melee": {
          "type": {
            "type": "Number",
            "label": "ITEM.MeleeWeapons.Type",
            "value": 0
          },
          "finesse": {
            "type": "Number",
            "label": "ITEM.MeleeWeapons.Finesse",
            "value": 0
          },
          "damage": {
            "type": "String",
            "label": "ITEM.MeleeWeapons.Damage",
            "value": 0
          },
          "damage2h": {
            "type": "String",
            "label": "ITEM.MeleeWeapons.Damage2h",
            "value": 0
          },
          "hands": {
            "type": "String",
            "label": "ITEM.WeaponHands",
            "value": ""
          }
        }
      },
      "ammo": {
        "ammo": {
          "usesAmmo": {
            "value": null
          },
          "maxAmmoInClip": {
            "value": 1
          },
          "currentAmmo": {
            "value": 1
          }
        }
      },
      "rangedWeapons": {
        "rangedWeapons": {
          "type": {
            "type": "Number",
            "label": "ITEM.RangedWeapons.Type",
            "value": 0
          },
          "isHeavy": {
            "type": "Number",
            "label": "ITEM.RangedWeapons.IsHeavy",
            "value": 0
          },
          "shortRange": {
            "type": "Number",
            "label": "ITEM.RangedWeapons.ShortRange",
            "value": 0
          },
          "shortRangeDamage": {
            "type": "String",
            "label": "ITEM.RangedWeapons.Damage",
            "value": 0
          },
          "shortRangeDifficulty": {
            "type": "Number",
            "label": "ITEM.RangedWeapons.Difficulty",
            "value": 0
          },
          "mediumRange": {
            "type": "Number",
            "label": "ITEM.RangedWeapons.MediumRange",
            "value": 0
          },
          "mediumRangeDamage": {
            "type": "String",
            "label": "ITEM.RangedWeapons.Damage",
            "value": 0
          },
          "mediumRangeDifficulty": {
            "type": "Number",
            "label": "ITEM.RangedWeapons.Difficulty",
            "value": 0
          },
          "longRange": {
            "type": "Number",
            "label": "ITEM.RangedWeapons.LongRange",
            "value": 0
          },
          "longRangeDamage": {
            "type": "String",
            "label": "ITEM.RangedWeapons.Damage",
            "value": 0
          },
          "longRangeDifficulty": {
            "type": "Number",
            "label": "ITEM.RangedWeapons.Difficulty",
            "value": 0
          },
          "burst": {
            "type": "String",
            "label": "ITEM.RangedWeapons.Burst",
            "value": 0
          },
          "destroyCover": {
            "type": "Boolean",
            "label": "ITEM.RangedWeapons.DestroyCover",
            "value": false
          },
          "divideFire": {
            "type": "Boolean",
            "label": "ITEM.RangedWeapons.DivideFire",
            "value": false
          },
          "directFireExplosive": {
            "type": "Boolean",
            "label": "ITEM.RangedWeapons.DirectFireExplosive",
            "value": false
          },
          "blastRadiusFatal": {
            "type": "Number",
            "label": "ITEM.RangedWeapons.BlastRadiusFatal",
            "value": 0
          },
          "blastRadiusInjury": {
            "type": "Number",
            "label": "ITEM.RangedWeapons.BlastRadiusInjury",
            "value": 0
          },
          "damageFatal": {
            "type": "Number",
            "label": "ITEM.RangedWeapons.DamageFatal",
            "value": 0
          },
          "damageInjury": {
            "type": "Number",
            "label": "ITEM.RangedWeapons.DamageInjury",
            "value": 0
          },
          "minimumSafeRange": {
            "type": "Boolean",
            "label": "ITEM.RangedWeapons.MinimumSafeRange",
            "value": false
          },
          "damage": {
            "type": "String",
            "label": "ITEM.RangedWeapon.Damage",
            "value": ""
          },
          "isTwoHanded": {
            "type": "Number",
            "label": "ITEM.RangedWeapon.IsTwoHanded",
            "value": 0
          }
        }
      },
      "cybernetics": {
        "cybernetics": {

        }
      },
      "equipment": {
        "equipment": {
          "notes": {
            "type": "String",
            "label": "ITEM.Notes",
            "value": 0
          }
        }
      }
    },
    "Armour": {
      "templates": [
        "internalId",
        "onShip",
        "cost",
        "effects",
        "details",
        "socialFactor",
        "notes",
        "wearable",
        "worn",
        "armour"
      ]
    },
    "Backgrounds": {
      "templates": [
        "internalId",
        "details",
        "backgrounds",
        "removable"
      ]
    },
    "Cybernetics": {
      "templates": [
        "internalId",
        "onShip",
        "cost",
        "karmaCost",
        "enduranceAddition",
        "notes",
        "details",
        "socialFactor",
        "effects",
        "wearable",
        "worn",
        "armour",
        "cybernetics"
      ]
    },
    "Enhancements": {
      "templates": [
        "details",
        "internalId"
      ]
    },
    "General Equipment": {
      "templates": [
        "internalId",
        "onShip",
        "cost",
        "details",
        "notes",
        "socialFactor",
        "effects"
      ]
    },
    "Wearables": {
      "templates": [
        "internalId",
        "onShip",
        "cost",
        "details",
        "wearable",
        "notes",
        "socialFactor",
        "worn",
        "effects"
      ]
    },
    "Karma Capabilities": {
      "templates": [
        "internalId",
        "details",
        "karma",
        "removable"
      ]
    },
    "Ranged Weapons": {
      "templates": [
        "internalId",
        "onShip",
        "cost",
        "equipped",
        "effects",
        "ammo",
        "notes",
        "details",
        "armour",
        "rangedWeapons"
      ]
    },
    "Melee Weapons": {
      "templates": [
        "internalId",
        "onShip",
        "cost",
        "notes",
        "effects",
        "details",
        "removable",
        "equipped",
        "melee"
      ]
    },
    "Ammo Clips": {
      "templates": [
        "internalId",
        "cost",
        "onShip",
        "worn",
        "details",
        "count"
      ]
    },
    "Commodities": {
      "templates": [
        "internalId",
        "cost",
        "onShip",
        "details",
        "count"
      ]
    },
    "Ship Bulkheads": {
      "templates": [
        "internalId",
        "cost",
        "onShip",
        "details"
      ]
    },
    "Ship Power Plants": {
      "templates": [
        "internalId",
        "cost",
        "details"
      ]
    },
    "Ship Thrusters": {
      "templates": [
        "internalId",
        "cost",
        "details"
      ]
    },
    "Ship FSD": {
      "templates": [
        "internalId",
        "cost",
        "details"
      ]
    },
    "Ship Life Support": {
      "templates": [
        "internalId",
        "cost",
        "details"
      ]
    },
    "Ship Sensors": {
      "templates": [
        "internalId",
        "cost",
        "details"
      ]
    },
    "Ship Shields": {
      "templates": [
        "internalId",
        "cost",
        "details"
      ]
    },
    "Ship Weapons": {
      "templates": [
        "internalId",
        "cost",
        "details"
      ]
    },
    "Ship Utility Mounts": {
      "templates": [
        "internalId",
        "cost",
        "details"
      ]
    },
    "Ship Internal - AFM Units": {
      "templates": [
        "internalId",
        "cost",
        "details"
      ]
    },
    "Ship Internal - Cargo Racks": {
      "templates": [
        "internalId",
        "cost",
        "details"
      ]
    },
    "Ship Internal - Collector Limpet Controllers": {
      "templates": [
        "internalId",
        "cost",
        "details"
      ]
    },
    "Ship Internal - Docking Computer": {
      "templates": [
        "internalId",
        "cost",
        "details"
      ]
    },
    "Ship Internal - FSD Interdictor": {
      "templates": [
        "internalId",
        "cost",
        "details"
      ]
    },
    "Ship Internal - Fuel Scoops": {
      "templates": [
        "internalId",
        "cost",
        "details"
      ]
    },
    "Ship Internal - Hatch Breaker Limpet Controllers": {
      "templates": [
        "internalId",
        "cost",
        "details"
      ]
    },
    "Ship Internal - Hull Reinforcement Packages": {
      "templates": [
        "internalId",
        "cost",
        "details"
      ]
    },
    "Ship Internal - Module Reinforcement Packages": {
      "templates": [
        "internalId",
        "cost",
        "details"
      ]
    },
    "Ship Internal - Prospector Limpet Controllers": {
      "templates": [
        "internalId",
        "cost",
        "details"
      ]
    },
    "Ship Internal - Planetary Vehicle Hangars": {
      "templates": [
        "internalId",
        "cost",
        "details"
      ]
    },
    "Ship Internal - Refineries": {
      "templates": [
        "internalId",
        "cost",
        "details"
      ]
    },
    "Ship Internal - Shield Cell Banks": {
      "templates": [
        "internalId",
        "cost",
        "details"
      ]
    },
    "Ship Internal - Shield Generators": {
      "templates": [
        "internalId",
        "cost",
        "details"
      ]
    },
    "Vehicle Shields": {
      "templates": [
        "internalId",
        "cost",
        "details"
      ]
    },
    "Vehicle Weapons": {
      "templates": [
        "internalId",
        "cost",
        "details"
      ]
    },
    "Vehicle Specials": {
      "templates": [
        "internalId",
        "cost",
        "details"
      ]
    }
  }
}
